<svg width="1440" height="64" preserveAspectRatio="none" viewBox="0 0 1440 64" fill="none" xmlns="http://www.w3.org/2000/svg">
<path d="M0 27.226C0 27.226 208.64 -2.327 369 0.147107C576.873 3.35426 728.619 63.9198 936.5 63.9198C1142.5 63.9198 1440 27.226 1440 27.226V64H0V27.226Z" fill="#A39FFF"/>
</svg>
